[gd_scene load_steps=5 format=2]

[ext_resource path="res://dungeon/block/Block.tscn" type="PackedScene" id=1]
[ext_resource path="res://assets/sprites/empty-room.png" type="Texture" id=2]
[ext_resource path="res://assets/sprites/empty_room_icon.png" type="Texture" id=3]
[ext_resource path="res://assets/sprites/boss_room.png" type="Texture" id=4]

[node name="EmptyRoom" instance=ExtResource( 1 )]
block_name = "Dragon Room"
type = 1
description = "rawr"
card_view = ExtResource( 3 )

[node name="View" parent="." index="0"]
texture = ExtResource( 2 )

[node name="Disabled" parent="." index="1"]
visible = true
texture = ExtResource( 4 )
