[gd_scene load_steps=6 format=2]

[ext_resource path="res://dungeon/block/Block.tscn" type="PackedScene" id=1]
[ext_resource path="res://assets/sprites/escape-room-icon.png" type="Texture" id=2]
[ext_resource path="res://dungeon/rule/DurationModifierRule.gd" type="Script" id=3]
[ext_resource path="res://assets/sprites/escape-room-active.png" type="Texture" id=4]
[ext_resource path="res://assets/sprites/escape-room-empty.png" type="Texture" id=5]

[node name="EscapeRoom" instance=ExtResource( 1 )]
block_name = "Escape room"
base_duration = 10.0
price = 6.0
type = 2
description = "Quite the pickle! The combination of a locked door and a mystery to be solved will keep the party occupied for a while.

Brainy types like scholars will solve it quickly, though (-5 s)."
card_view = ExtResource( 2 )

[node name="View" parent="." index="0"]
texture = ExtResource( 4 )

[node name="Disabled" parent="." index="1"]
texture = ExtResource( 5 )

[node name="DurationModifierRule" type="Node" parent="." index="2"]
script = ExtResource( 3 )
effect_types = [ 0 ]
affected_classes = [ 3 ]
modifier = -5.0
