[gd_scene load_steps=4 format=2]

[ext_resource path="res://dungeon/block/Block.tscn" type="PackedScene" id=1]
[ext_resource path="res://icon.png" type="Texture" id=2]
[ext_resource path="res://dungeon/rule/DurationModifierRule.gd" type="Script" id=3]

[node name="TestBlock" instance=ExtResource( 1 )]

[node name="View" parent="." index="0"]
texture = ExtResource( 2 )

[node name="DurationModifierRule" type="Node" parent="." index="1"]
script = ExtResource( 3 )
effect_types = [ 0 ]
affected_classes = [ 0 ]
modifier = 2.0
