[gd_scene load_steps=5 format=2]

[ext_resource path="res://assets/sprites/play_feio.png" type="Texture" id=1]
[ext_resource path="res://stage/action/Action.gd" type="Script" id=2]
[ext_resource path="res://assets/sfx/startDenial.wav" type="AudioStream" id=3]
[ext_resource path="res://assets/fonts/TextFont.tres" type="DynamicFont" id=4]

[node name="Action" type="CenterContainer"]
anchor_left = 1.0
anchor_right = 1.0
anchor_bottom = 1.0
margin_left = -150.0
rect_min_size = Vector2( 150, 150 )
mouse_filter = 2
script = ExtResource( 2 )

[node name="PlayButton" type="TextureButton" parent="."]
margin_left = 25.0
margin_top = 310.0
margin_right = 125.0
margin_bottom = 410.0
rect_min_size = Vector2( 100, 100 )
texture_normal = ExtResource( 1 )
expand = true

[node name="Hint" type="Label" parent="PlayButton"]
visible = false
anchor_right = 1.0
margin_top = -60.0
custom_fonts/font = ExtResource( 4 )
text = "Make a path to the exit!"
align = 1
autowrap = true

[node name="FailStartSFX" type="AudioStreamPlayer" parent="."]
stream = ExtResource( 3 )
bus = "SFX"

[connection signal="pressed" from="PlayButton" to="." method="_on_play_pressed"]
